/* XPM */
static char * bottom_left_active_xpm[] = {
"8 8 7 1",
" 	c None",
".	c #616161",
"+	c #20201E",
"@	c #212121",
"#	c #F28130",
"$	c #000000",
"%	c #202020",
".+@@@##$",
".%@@@###",
".%@@@@##",
".+@@@@@@",
".+@@@@@@",
".+@@@@@@",
".+@@@@@@",
"........"};
