/* XPM */
static char * shade_prelight_xpm[] = {
"26 26 4 1",
" 	c None",
".	c #F28130",
"+	c #FFFFFF",
"@	c #616161",
"                          ",
"                          ",
"                          ",
"                          ",
" ........................ ",
"..........................",
"..........................",
"..........................",
"..........................",
"........++++++++++........",
"........++++++++++@.......",
".........@@@@@@@@@@.......",
"............++............",
"...........++++...........",
"..........++++++..........",
".........+++@@+++.........",
"........+++@@..+++........",
"........++@@....++@.......",
".........@@......@@.......",
"..........................",
"..........................",
"..........................",
"..........................",
"..........................",
"                          ",
"                          "};
