/* XPM */
static char * close_active_xpm[] = {
"26 26 4 1",
" 	c None",
".	c #1BB272",
"+	c #FFFFFF",
"@	c #616161",
"                          ",
"                          ",
"                          ",
"                          ",
" ........................ ",
"..........................",
"..........................",
"..........................",
"..........................",
"........++......++........",
"........+++....+++@.......",
".........+++..+++@@.......",
"..........++++++@@........",
"...........++++@@.........",
"...........++++@..........",
"..........++++++..........",
".........+++@@+++.........",
"........+++@@..+++........",
"........++@@....++@.......",
".........@@......@@.......",
"..........................",
"..........................",
"..........................",
"..........................",
"                          ",
"                          "};
