/* XPM */
static char * hide_prelight_xpm[] = {
"26 26 4 1",
" 	c None",
".	c #1BB272",
"+	c #FFFFFF",
"@	c #616161",
"                          ",
"                          ",
"                          ",
"                          ",
" ........................ ",
"..........................",
"..........................",
"..........................",
"..........................",
"..........................",
"..........................",
"..........................",
"..........................",
"........++++++++++........",
"........++++++++++@.......",
".........@@@@@@@@@@.......",
"..........................",
"..........................",
"..........................",
"..........................",
"..........................",
"..........................",
"..........................",
"..........................",
"                          ",
"                          "};
