/* XPM */
static char * stick_toggled_prelight_xpm[] = {
"26 26 4 1",
" 	c None",
".	c #3DC431",
"+	c #FFFFFF",
"@	c #616161",
"                          ",
"                          ",
"                          ",
"                          ",
" ........................ ",
"..........................",
"..........................",
"..........................",
"..........................",
".........++++++++.........",
"........++++++++++........",
"........++@@@@@@++@.......",
"........++@++++.++@.......",
"........++@++++@++@.......",
"........++@++++@++@.......",
"........++@++++@++@.......",
"........++@.@@@@++@.......",
"........++++++++++@.......",
".........++++++++@@.......",
"..........@@@@@@@@........",
"..........................",
"..........................",
"..........................",
"..........................",
"                          ",
"                          "};
