/* XPM */
static char * close_prelight_xpm[] = {
"26 26 3 1",
" 	c None",
".	c #808080",
"+	c #FFFFFF",
"                          ",
"                          ",
"                          ",
"                          ",
" ........................ ",
"..........................",
"..........................",
"..........................",
"..........................",
"........++......++........",
"........+++....+++........",
".........+++..+++.........",
"..........++++++..........",
"...........++++...........",
"...........++++...........",
"..........++++++..........",
".........+++..+++.........",
"........+++....+++........",
"........++......++........",
"..........................",
"..........................",
"..........................",
"..........................",
"..........................",
"                          ",
"                          "};
