/* XPM */
static char * top_right_active_xpm[] = {
"8 28 7 1",
" 	c None",
".	c #616161",
"+	c #212121",
"@	c #20201E",
"#	c #FF3387",
"$	c #202020",
"%	c #000000",
"........",
"+++++++.",
"@@@@@@@.",
"++++++@.",
"++++++@.",
"++++++@.",
"++++++@.",
"++++++@.",
"++++++@.",
"++++++@.",
"++++++@.",
"++++++@.",
"++++++@.",
"++++++@.",
"++++++@.",
"++++++@.",
"++++++@.",
"++++++@.",
"++++++@.",
"++++++@.",
"++++++@.",
"++++++@.",
"++++++@.",
"++++++@.",
"++++++@.",
"##++++$.",
"###+++$.",
"%##+++@."};
