/* XPM */
static char * bottom_active_xpm[] = {
"28 8 6 1",
" 	c None",
".	c #000000",
"+	c #B045FF",
"@	c #212121",
"#	c #20201E",
"$	c #616161",
"............................",
"++++++++++++++++++++++++++++",
"++++++++++++++++++++++++++++",
"@@@@@@@@@@@@@@@@@@@@@@@@@@@@",
"@@@@@@@@@@@@@@@@@@@@@@@@@@@@",
"@@@@@@@@@@@@@@@@@@@@@@@@@@@@",
"@@@@@@@@@@@@@@@@@@@@@@@@@@#@",
"$$$$$$$$$$$$$$$$$$$$$$$$$$$$"};
