/* XPM */
static char * title_4_active_xpm[] = {
"8 28 5 1",
" 	c None",
".	c #616161",
"+	c #212121",
"@	c #B045FF",
"#	c #000000",
"........",
"++++++++",
"++++++++",
"++++++++",
"++++++++",
"@@@@@@@+",
"@@@@@@@@",
"@@@@@@@@",
"@@@@@@@@",
"@@@@@@@@",
"@@@@@@@@",
"@@@@@@@@",
"@@@@@@@@",
"@@@@@@@@",
"@@@@@@@@",
"@@@@@@@@",
"@@@@@@@@",
"@@@@@@@@",
"@@@@@@@@",
"@@@@@@@@",
"@@@@@@@@",
"@@@@@@@@",
"@@@@@@@@",
"@@@@@@@@",
"@@@@@@@@",
"@@@@@@@@",
"@@@@@@@@",
"########"};
