/* XPM */
static char * right_active_xpm[] = {
"8 28 6 1",
" 	c None",
".	c #000000",
"+	c #FF4564",
"@	c #212121",
"#	c #616161",
"$	c #20201E",
".++@@@@#",
".++@@@$#",
".++@@@@#",
".++@@@@#",
".++@@@@#",
".++@@@@#",
".++@@@@#",
".++@@@@#",
".++@@@@#",
".++@@@@#",
".++@@@@#",
".++@@@@#",
".++@@@@#",
".++@@@@#",
".++@@@@#",
".++@@@@#",
".++@@@@#",
".++@@@@#",
".++@@@@#",
".++@@@@#",
".++@@@@#",
".++@@@@#",
".++@@@@#",
".++@@@@#",
".++@@@@#",
".++@@@@#",
".++@@@@#",
".++@@@@#"};
