/* XPM */
static char * bottom_right_active_xpm[] = {
"8 8 7 1",
" 	c None",
".	c #000000",
"+	c #23B7E8",
"@	c #212121",
"#	c #20201E",
"$	c #616161",
"%	c #202020",
".++@@@#$",
"+++@@@%$",
"++@@@@%$",
"@@@@@@#$",
"@@@@@@#$",
"@@@@@@#$",
"@@@@@@#$",
"$$$$$$$$"};
