/* XPM */
static char * left_active_xpm[] = {
"8 28 6 1",
" 	c None",
".	c #616161",
"+	c #212121",
"@	c #23B7E8",
"#	c #000000",
"$	c #20201E",
".++++@@#",
".$+++@@#",
".++++@@#",
".++++@@#",
".++++@@#",
".++++@@#",
".++++@@#",
".++++@@#",
".++++@@#",
".++++@@#",
".++++@@#",
".++++@@#",
".++++@@#",
".++++@@#",
".++++@@#",
".++++@@#",
".++++@@#",
".++++@@#",
".++++@@#",
".++++@@#",
".++++@@#",
".++++@@#",
".++++@@#",
".++++@@#",
".++++@@#",
".++++@@#",
".++++@@#",
".++++@@#"};
