/* XPM */
static char * maximize_prelight_xpm[] = {
"26 26 4 1",
" 	c None",
".	c #23B7E8",
"+	c #FFFFFF",
"@	c #616161",
"                          ",
"                          ",
"                          ",
"                          ",
" ........................ ",
"..........................",
"..........................",
"..........................",
"..........................",
"........++++++++++........",
"........++++++++++@.......",
"........++@@@@@@++@.......",
"........++@.....++@.......",
"........++@.....++@.......",
"........++@.....++@.......",
"........++@.....++@.......",
"........++@.....++@.......",
"........++++++++++@.......",
"........++++++++++@.......",
".........@@@@@@@@@@.......",
"..........................",
"..........................",
"..........................",
"..........................",
"                          ",
"                          "};
