/* XPM */
static char * title_1_inactive_xpm[] = {
"8 28 6 1",
" 	c None",
".	c #616161",
"+	c #212121",
"@	c #20201E",
"#	c #BFBFBF",
"$	c #000000",
"........",
"++++++++",
"@@@@@@@@",
"++++++++",
"++++++++",
"++++++++",
"++++++++",
"++++++++",
"++++++++",
"++++++++",
"++++++++",
"++++++++",
"++++++++",
"++++++++",
"++++++++",
"++++++++",
"++++++++",
"++++++++",
"++++++++",
"++++++++",
"++++++++",
"++++++++",
"++++++++",
"++++++++",
"++++++++",
"########",
"########",
"$$$$$$$$"};
