/* XPM */
static char * title_2_inactive_xpm[] = {
"8 28 5 1",
" 	c None",
".	c #616161",
"+	c #212121",
"@	c #BFBFBF",
"#	c #000000",
"........",
"++++++++",
"++++++++",
"++++++++",
"++++++++",
"+@@@@@@@",
"@@@@@@@@",
"@@@@@@@@",
"@@@@@@@@",
"@@@@@@@@",
"@@@@@@@@",
"@@@@@@@@",
"@@@@@@@@",
"@@@@@@@@",
"@@@@@@@@",
"@@@@@@@@",
"@@@@@@@@",
"@@@@@@@@",
"@@@@@@@@",
"@@@@@@@@",
"@@@@@@@@",
"@@@@@@@@",
"@@@@@@@@",
"@@@@@@@@",
"@@@@@@@@",
"@@@@@@@@",
"@@@@@@@@",
"########"};
