/* XPM */
static char * top_left_inactive_xpm[] = {
"8 28 7 1",
" 	c None",
".	c #616161",
"+	c #212121",
"@	c #20201E",
"#	c #202020",
"$	c #BFBFBF",
"%	c #000000",
"........",
".+++++++",
".@@@@@@@",
".@++++++",
".@++++++",
".@++++++",
".@++++++",
".@++++++",
".@++++++",
".@++++++",
".@++++++",
".@++++++",
".@++++++",
".@++++++",
".@++++++",
".@++++++",
".@++++++",
".@++++++",
".@++++++",
".@++++++",
".@++++++",
".@++++++",
".@++++++",
".@++++++",
".@++++++",
".#++++$$",
".#+++$$$",
".@+++$$%"};
