/* XPM */
static char * shade_toggled_prelight_xpm[] = {
"26 26 4 1",
" 	c None",
".	c #EAB000 s active_color_1",
"+	c #FFFFFF",
"@	c #616161",
"                          ",
"                          ",
"                          ",
"                          ",
" ........................ ",
"..........................",
"..........................",
"..........................",
"..........................",
"........++++++++++........",
"........++++++++++@.......",
".........@@@@@@@@@@.......",
"........++......++........",
"........+++....+++@.......",
".........+++..+++@@.......",
"..........++++++@@........",
"...........++++@@.........",
"............++@@..........",
".............@@...........",
"..........................",
"..........................",
"..........................",
"..........................",
"..........................",
"                          ",
"                          "};
